<?xml version="1.0" encoding="utf-8"?>
<!-- Generator: Adobe Illustrator 17.0.0, SVG Export Plug-In . SVG Version: 6.00 Build 0)  -->
<!DOCTYPE svg PUBLIC "-//W3C//DTD SVG 1.1//EN" "http://www.w3.org/Graphics/SVG/1.1/DTD/svg11.dtd">
<svg version="1.1" id="レイヤー_1" xmlns="http://www.w3.org/2000/svg" xmlns:xlink="http://www.w3.org/1999/xlink" x="0px"
	 y="0px" width="47.25px" height="86px" viewBox="0 0 47.25 86" enable-background="new 0 0 47.25 86" xml:space="preserve">
<g>
	<path fill="#808080" d="M25.058,73.97l7.912-9.041c0.303-0.349,0.455-0.804,0.455-1.26c0-0.455-0.152-0.911-0.455-1.256
		c-0.609-0.695-1.595-0.695-2.203,0l-5.71,6.524V40.904c0-0.002-0.001-0.006-0.001-0.012V18.488l5.709,6.528
		c0.609,0.693,1.595,0.693,2.203,0c0.607-0.696,0.607-1.821,0-2.518l-7.912-9.042L23.5,11.68l-1.558,1.777l-7.911,9.042
		c-0.304,0.35-0.456,0.803-0.456,1.26c0,0.455,0.152,0.911,0.456,1.259c0.609,0.693,1.594,0.693,2.202,0l5.71-6.528v28.034
		c0,0.003,0.001,0.006,0.001,0.012v22.403l-5.709-6.524c-0.609-0.695-1.594-0.695-2.202,0c-0.607,0.694-0.607,1.821,0,2.516
		l7.91,9.041l1.557,1.78L25.058,73.97z"/>
</g>
<rect x="6" y="5" fill="none" stroke="#808080" stroke-width="4" stroke-miterlimit="10" width="35" height="77"/>
</svg>
